^D:\ПРОЕКТЫ UNREAL\UNREAL\C++\HW17\HW17\HW17\DEBUG\HW17.OBJ
D:\ПРОЕКТЫ UNREAL\UNREAL\C++\HW17\HW17\DEBUG\HW17.EXE
D:\ПРОЕКТЫ UNREAL\UNREAL\C++\HW17\HW17\DEBUG\HW17.ILK
D:\ПРОЕКТЫ UNREAL\UNREAL\C++\HW17\HW17\DEBUG\HW17.PDB
