﻿  HW17.cpp
  Создание кода
  All 14 functions were compiled because no usable IPDB/IOBJ from previous compilation was found.
  Создание кода завершено
  HW17.vcxproj -> D:\ПРОЕКТЫ UNREAL\UNREAL\C++\HW17\HW17\Release\HW17.exe
